\relax 
\providecommand\hyper@newdestlabel[2]{}
\AC@reset@newl@bel
\providecommand\HyperFirstAtBeginDocument{\AtBeginDocument}
\HyperFirstAtBeginDocument{\ifx\hyper@anchor\@undefined
\global\let\oldcontentsline\contentsline
\gdef\contentsline#1#2#3#4{\oldcontentsline{#1}{#2}{#3}}
\global\let\oldnewlabel\newlabel
\gdef\newlabel#1#2{\newlabelxx{#1}#2}
\gdef\newlabelxx#1#2#3#4#5#6{\oldnewlabel{#1}{{#2}{#3}}}
\AtEndDocument{\ifx\hyper@anchor\@undefined
\let\contentsline\oldcontentsline
\let\newlabel\oldnewlabel
\fi}
\fi}
\global\let\hyper@last\relax 
\gdef\HyperFirstAtBeginDocument#1{#1}
\providecommand\HyField@AuxAddToFields[1]{}
\providecommand\HyField@AuxAddToCoFields[2]{}
\citation{citi2019}
\@writefile{toc}{\contentsline {subsection}{\numberline {2.1}Apoplast model}{1}{subsection.2.1}}
\newlabel{sec:apomodel}{{2.1}{1}{Apoplast model}{subsection.2.1}{}}
\@writefile{lof}{\contentsline {figure}{\numberline {1}{\ignorespaces Schematic of the one-dimensional "Apoplast" model, which is based on the "Simple" model. Apoplast 'cells' are integrated between neighbored cells with an individual auxin concentration ($A_{i,i+k}$). Apoplast doesn't contain PINs and are only able to derade auxin. The PIN distribution of a cell now is dependent on the relative auxin concentration of the neighboring apoplasts instead of the cells. Auxin can still be transported via diffusion or PINs and additionally, by AUX carriers from apoplasts back into cells. Other than PINs, the concentration of them is assumed to be fixed for each membrane.}}{1}{figure.1}}
\newlabel{fig:Apo_transport}{{1}{1}{Schematic of the one-dimensional "Apoplast" model, which is based on the "Simple" model. Apoplast 'cells' are integrated between neighbored cells with an individual auxin concentration ($A_{i,i+k}$). Apoplast doesn't contain PINs and are only able to derade auxin. The PIN distribution of a cell now is dependent on the relative auxin concentration of the neighboring apoplasts instead of the cells. Auxin can still be transported via diffusion or PINs and additionally, by AUX carriers from apoplasts back into cells. Other than PINs, the concentration of them is assumed to be fixed for each membrane}{figure.1}{}}
\@writefile{toc}{\contentsline {subsubsection}{\numberline {2.1.1}Mathematical equations}{1}{subsubsection.2.1.1}}
\newlabel{sec:apoequation}{{2.1.1}{1}{Mathematical equations}{subsubsection.2.1.1}{}}
\newlabel{eq:3}{{1}{2}{Mathematical equations}{equation.2.1}{}}
\newlabel{eq:3a}{{1a}{2}{Mathematical equations}{equation.2.1a}{}}
\newlabel{eq:4}{{2}{2}{Mathematical equations}{equation.2.2}{}}
\newlabel{eq:5}{{3}{2}{Mathematical equations}{equation.2.3}{}}
\newlabel{eq:5a}{{3a}{2}{Mathematical equations}{equation.2.3a}{}}
\newlabel{eq:5b}{{3b}{2}{Mathematical equations}{equation.2.3b}{}}
\newlabel{eq:5c}{{3c}{2}{Mathematical equations}{equation.2.3c}{}}
\@writefile{lof}{\contentsline {figure}{\numberline {2}{\ignorespaces Simulations of the "Apoplast" model with the previous standard conditions for the inherited parameters of the "Simple" model (\textbf  {A}) and a new standrd parameter set (\textbf  {B}). Auxin concentrations shown for each cell (blue) or the extracellular space between two cells (orange).}}{3}{figure.2}}
\newlabel{fig:apo_standard}{{2}{3}{Simulations of the "Apoplast" model with the previous standard conditions for the inherited parameters of the "Simple" model (\textbf {A}) and a new standrd parameter set (\textbf {B}). Auxin concentrations shown for each cell (blue) or the extracellular space between two cells (orange)}{figure.2}{}}
\@writefile{toc}{\contentsline {subsubsection}{\numberline {2.1.2}Analysis}{3}{subsubsection.2.1.2}}
\newlabel{sec:APOmbt}{{2.1.2}{3}{Analysis}{subsubsection.2.1.2}{}}
\@writefile{lot}{\contentsline {table}{\numberline {1}{\ignorespaces Values and definitions of the parameter used as the standard for analysis of the "Apoplast" model.}}{4}{table.1}}
\newlabel{tab:Apo_standard}{{1}{4}{Values and definitions of the parameter used as the standard for analysis of the "Apoplast" model}{table.1}{}}
\@writefile{lof}{\contentsline {figure}{\numberline {3}{\ignorespaces Simulations under apoplast standard conditions with size varying over a range from 5 to 100 cells. (\textbf  {A} and \textbf  {B}) Testing results were taken at steady state for each cell number $N$; (\textbf  {C}) Simulation with system of 95 cells. Even without a global pattern, similar structures (red and green frames) can be found. }}{5}{figure.3}}
\newlabel{fig:apo_cn}{{3}{5}{Simulations under apoplast standard conditions with size varying over a range from 5 to 100 cells. (\textbf {A} and \textbf {B}) Testing results were taken at steady state for each cell number $N$; (\textbf {C}) Simulation with system of 95 cells. Even without a global pattern, similar structures (red and green frames) can be found}{figure.3}{}}
\@writefile{lof}{\contentsline {figure}{\numberline {4}{\ignorespaces Simulations under apoplast standard conditions with initial values for auxin and PIN in a parameter range from 1 to 96. Test results for (\textbf  {A}) initial auxin and (\textbf  {B}) PIN. Results of the newly added tests are not shown, since they don't show any helpful information.}}{6}{figure.4}}
\newlabel{fig:apo_init}{{4}{6}{Simulations under apoplast standard conditions with initial values for auxin and PIN in a parameter range from 1 to 96. Test results for (\textbf {A}) initial auxin and (\textbf {B}) PIN. Results of the newly added tests are not shown, since they don't show any helpful information}{figure.4}{}}
\@writefile{lof}{\contentsline {figure}{\numberline {5}{\ignorespaces Simulations under apoplast standard conditions with 20\% and 50\% initial noise.}}{6}{figure.5}}
\newlabel{fig:apo_noi}{{5}{6}{Simulations under apoplast standard conditions with 20\% and 50\% initial noise}{figure.5}{}}
\@writefile{lof}{\contentsline {figure}{\numberline {6}{\ignorespaces Simulations under apoplast standard conditions with (\textbf  {A}) "cutoff", (\textbf  {B}) "PBC" or (\textbf  {C}) "zero-flux" boundary condition.}}{7}{figure.6}}
\newlabel{fig:apo_bc}{{6}{7}{Simulations under apoplast standard conditions with (\textbf {A}) "cutoff", (\textbf {B}) "PBC" or (\textbf {C}) "zero-flux" boundary condition}{figure.6}{}}
\@writefile{lof}{\contentsline {figure}{\numberline {7}{\ignorespaces Relative difference in the distribution of auxin to a standard simulation. Source or sink is at position 25 (red square) in an apoplast (\textbf  {A} and \textbf  {B}) or a cell (\textbf  {C} and \textbf  {D}).}}{8}{figure.7}}
\newlabel{fig:apo_ss}{{7}{8}{Relative difference in the distribution of auxin to a standard simulation. Source or sink is at position 25 (red square) in an apoplast (\textbf {A} and \textbf {B}) or a cell (\textbf {C} and \textbf {D})}{figure.7}{}}
\@writefile{lof}{\contentsline {figure}{\numberline {8}{\ignorespaces Simulations under apoplast standard conditions with the increase of the auxin base level from 1 to 50 $\mu g/L$.}}{9}{figure.8}}
\newlabel{fig:apo_A}{{8}{9}{Simulations under apoplast standard conditions with the increase of the auxin base level from 1 to 50 $\mu g/L$}{figure.8}{}}
\@writefile{lof}{\contentsline {figure}{\numberline {9}{\ignorespaces Simulations under apoplast standard conditions with increase of the auxin synthesis coefficient $G_{a}$ from 0.05 to 10. $G_{a}$ does not change the rate, but how strong it is affected by the difference of the base level $A$ and the actual concentration.}}{9}{figure.9}}
\newlabel{fig:apo_Ga}{{9}{9}{Simulations under apoplast standard conditions with increase of the auxin synthesis coefficient $G_{a}$ from 0.05 to 10. $G_{a}$ does not change the rate, but how strong it is affected by the difference of the base level $A$ and the actual concentration}{figure.9}{}}
\@writefile{lof}{\contentsline {figure}{\numberline {10}{\ignorespaces Simulations under apoplast standard conditions with the increase of the diffusion coefficient $D_{a}$ from 0 to 120. Maximum of "avg. peak height" if $D_{a}$ between 10 and 20.}}{10}{figure.10}}
\newlabel{fig:apo_Da}{{10}{10}{Simulations under apoplast standard conditions with the increase of the diffusion coefficient $D_{a}$ from 0 to 120. Maximum of "avg. peak height" if $D_{a}$ between 10 and 20}{figure.10}{}}
\@writefile{lof}{\contentsline {figure}{\numberline {11}{\ignorespaces Simulations under apoplast standard conditions with variation of the PIN efficiency $E_{p}$ from 0 to 1. (A) Simulation with an value of 0.255 for $E_{p}$. Higher ($E_{p}=0.256$) or lower ($E_{p}=0.254$) values either show increasing irregularity or no change at all, respectively. (B) Calculated test values of steady states with different $E_{p}$. (C) Calculated test values of steady states with $E_{p}=0.255$ and variation of $D_{a}$. Red marks indicates values at which the results drastically change.}}{11}{figure.11}}
\newlabel{fig:apo_Ep}{{11}{11}{Simulations under apoplast standard conditions with variation of the PIN efficiency $E_{p}$ from 0 to 1. (A) Simulation with an value of 0.255 for $E_{p}$. Higher ($E_{p}=0.256$) or lower ($E_{p}=0.254$) values either show increasing irregularity or no change at all, respectively. (B) Calculated test values of steady states with different $E_{p}$. (C) Calculated test values of steady states with $E_{p}=0.255$ and variation of $D_{a}$. Red marks indicates values at which the results drastically change}{figure.11}{}}
\@writefile{lof}{\contentsline {figure}{\numberline {12}{\ignorespaces Simulations under apoplast standard conditions with the parameter $E_{p}$ against $D_{a}$. The heatmap shows the difference at steady state to the result with $E_{p}=0.255$ and $D_{a}=30.5$, that shows a regular pattern. The difference of two distributions is defined by the standard deviation of the element-wise, absolute difference in the auxin concentration. The red dot mark the smallest value for a specific $E_{p}$. Calculated linear regression revealed a change of 12 of the diffusion coefficient per increase of the PIN efficiency by $1\%$.}}{11}{figure.12}}
\newlabel{fig:apo_epda}{{12}{11}{Simulations under apoplast standard conditions with the parameter $E_{p}$ against $D_{a}$. The heatmap shows the difference at steady state to the result with $E_{p}=0.255$ and $D_{a}=30.5$, that shows a regular pattern. The difference of two distributions is defined by the standard deviation of the element-wise, absolute difference in the auxin concentration. The red dot mark the smallest value for a specific $E_{p}$. Calculated linear regression revealed a change of 12 of the diffusion coefficient per increase of the PIN efficiency by $1\%$}{figure.12}{}}
\bibstyle{plain}
\bibdata{master-ref2}
\bibcite{citi2019}{1}
\@writefile{lof}{\contentsline {figure}{\numberline {13}{\ignorespaces Simulations under apoplast standard conditions with the increase of PIN regulation coefficient $m$, which affects the influence of neighboring auxin concentrations on the PIN distribution of a cell [\ref  {phi}].}}{12}{figure.13}}
\newlabel{fig:apo_m}{{13}{12}{Simulations under apoplast standard conditions with the increase of PIN regulation coefficient $m$, which affects the influence of neighboring auxin concentrations on the PIN distribution of a cell [\ref {phi}]}{figure.13}{}}
