\contentsline {section}{\numberline {1}Models}{2}{section.1}
\contentsline {subsection}{\numberline {1.1}One-dimensional auxin pattern model}{2}{subsection.1.1}
\contentsline {subsubsection}{\numberline {1.1.1}Mathematical equations}{4}{subsubsection.1.1.1}
\contentsline {subsection}{\numberline {1.2}Analysis}{5}{subsection.1.2}
