\relax 
\providecommand\hyper@newdestlabel[2]{}
\AC@reset@newl@bel
\providecommand\HyperFirstAtBeginDocument{\AtBeginDocument}
\HyperFirstAtBeginDocument{\ifx\hyper@anchor\@undefined
\global\let\oldcontentsline\contentsline
\gdef\contentsline#1#2#3#4{\oldcontentsline{#1}{#2}{#3}}
\global\let\oldnewlabel\newlabel
\gdef\newlabel#1#2{\newlabelxx{#1}#2}
\gdef\newlabelxx#1#2#3#4#5#6{\oldnewlabel{#1}{{#2}{#3}}}
\AtEndDocument{\ifx\hyper@anchor\@undefined
\let\contentsline\oldcontentsline
\let\newlabel\oldnewlabel
\fi}
\fi}
\global\let\hyper@last\relax 
\gdef\HyperFirstAtBeginDocument#1{#1}
\providecommand\HyField@AuxAddToFields[1]{}
\providecommand\HyField@AuxAddToCoFields[2]{}
\@writefile{toc}{\contentsline {section}{\numberline {1}Models}{1}{section.1}}
\newlabel{sec:models}{{1}{1}{Models}{section.1}{}}
\@writefile{toc}{\contentsline {subsection}{\numberline {1.1}Simple 2D model}{1}{subsection.1.1}}
\newlabel{sec:2d}{{1.1}{1}{Simple 2D model}{subsection.1.1}{}}
\newlabel{eq:2d_1}{{1}{1}{Simple 2D model}{equation.1.1}{}}
\newlabel{eq:2d_1a}{{1a}{1}{Simple 2D model}{equation.1.1a}{}}
\@writefile{lof}{\contentsline {figure}{\numberline {1}{\ignorespaces Two-dimensional model based on the "Simple" model. (A,B) The model is build on a 50x50 rectangular grid with the height (z-axis) as the absolute auxin concentration at each position. Used values for the parameters are [auxin=1, pin=10, noise=0.1, PBC=1, A=4, Ga=0.2, Da=1.31, P=40, Gp=0.25, Ep=0.2]. (A) Perspective and (B) Top view of the final simulation. (C) Alternative representation (extract, inverted) of the model. Each cell is divided into a central (cytosol) and four marginal spaces (intermembrane PIN), where the opacity of a space is defined by the respective concentration of auxin (green) or PIN (red). (D) Agent-based model for the two-dimensional case of the patterning process. Model size is 21x21 with the auxin concentration presented by the normalized grayscale color of each cell.}}{2}{figure.1}}
\newlabel{fig:2d_view}{{1}{2}{Two-dimensional model based on the "Simple" model. (A,B) The model is build on a 50x50 rectangular grid with the height (z-axis) as the absolute auxin concentration at each position. Used values for the parameters are [auxin=1, pin=10, noise=0.1, PBC=1, A=4, Ga=0.2, Da=1.31, P=40, Gp=0.25, Ep=0.2]. (A) Perspective and (B) Top view of the final simulation. (C) Alternative representation (extract, inverted) of the model. Each cell is divided into a central (cytosol) and four marginal spaces (intermembrane PIN), where the opacity of a space is defined by the respective concentration of auxin (green) or PIN (red). (D) Agent-based model for the two-dimensional case of the patterning process. Model size is 21x21 with the auxin concentration presented by the normalized grayscale color of each cell}{figure.1}{}}
\citation{fujita2018}
\bibstyle{plain}
\bibdata{master-ref2}
\bibcite{fujita2018}{1}
\@writefile{toc}{\contentsline {subsection}{\numberline {1.2}Other models}{3}{subsection.1.2}}
\newlabel{sec:other}{{1.2}{3}{Other models}{subsection.1.2}{}}
\@writefile{toc}{\contentsline {subsubsection}{\numberline {1.2.1}ABP model}{3}{subsubsection.1.2.1}}
\newlabel{sec:ABP}{{1.2.1}{3}{ABP model}{subsubsection.1.2.1}{}}
\@writefile{toc}{\contentsline {subsubsection}{\numberline {1.2.2}Leaf margin morphogenesis}{3}{subsubsection.1.2.2}}
\newlabel{sec:LMM}{{1.2.2}{3}{Leaf margin morphogenesis}{subsubsection.1.2.2}{}}
\@writefile{toc}{\contentsline {subsection}{\numberline {1.3}Conclusions}{3}{subsection.1.3}}
\newlabel{sec:conclusion}{{1.3}{3}{Conclusions}{subsection.1.3}{}}
\@writefile{toc}{\contentsline {subsection}{\numberline {1.4}Outlook}{3}{subsection.1.4}}
\newlabel{sec:outlook}{{1.4}{3}{Outlook}{subsection.1.4}{}}
