\relax 
\providecommand\hyper@newdestlabel[2]{}
\AC@reset@newl@bel
\providecommand\HyperFirstAtBeginDocument{\AtBeginDocument}
\HyperFirstAtBeginDocument{\ifx\hyper@anchor\@undefined
\global\let\oldcontentsline\contentsline
\gdef\contentsline#1#2#3#4{\oldcontentsline{#1}{#2}{#3}}
\global\let\oldnewlabel\newlabel
\gdef\newlabel#1#2{\newlabelxx{#1}#2}
\gdef\newlabelxx#1#2#3#4#5#6{\oldnewlabel{#1}{{#2}{#3}}}
\AtEndDocument{\ifx\hyper@anchor\@undefined
\let\contentsline\oldcontentsline
\let\newlabel\oldnewlabel
\fi}
\fi}
\global\let\hyper@last\relax 
\gdef\HyperFirstAtBeginDocument#1{#1}
\providecommand\HyField@AuxAddToFields[1]{}
\providecommand\HyField@AuxAddToCoFields[2]{}
\citation{Fujita2018}
\citation{shinohara2013}
\citation{whitford2012}
\@writefile{toc}{\contentsline {section}{\numberline {1}Models}{1}{section.1}}
\@writefile{toc}{\contentsline {subsection}{\numberline {1.1}MoleculeX model}{1}{subsection.1.1}}
\newlabel{sec:molxmodel}{{1.1}{1}{MoleculeX model}{subsection.1.1}{}}
\@writefile{lof}{\contentsline {figure}{\numberline {1}{\ignorespaces Schematic of the one-dimensional "MoleculeX" model, which is based on the "Apoplast model. Beside auxin, a diffusible molecule ($MX_{i}$) is produced, dependent on the auxin concentration, in a cell and can freely diffuse between cells and apoplasts. Together with the auxin in the apoplasts, it is a factor for the regulation of the PIN re-distribution.}}{1}{figure.1}}
\@writefile{toc}{\contentsline {subsubsection}{\numberline {1.1.1}Mathematical equations}{1}{subsubsection.1.1.1}}
\newlabel{sec:molxequation}{{1.1.1}{1}{Mathematical equations}{subsubsection.1.1.1}{}}
\newlabel{eq:molx_xi}{{1}{2}{Mathematical equations}{equation.1.1}{}}
\newlabel{eq:molx_theta}{{1a}{2}{Mathematical equations}{equation.1.1a}{}}
\newlabel{eq:molx_xij}{{2}{2}{Mathematical equations}{equation.1.2}{}}
\@writefile{toc}{\contentsline {subsection}{\numberline {1.2}Analysis}{2}{subsection.1.2}}
\newlabel{sec:molxanalysis}{{1.2}{2}{Analysis}{subsection.1.2}{}}
\@writefile{lof}{\contentsline {figure}{\numberline {2}{\ignorespaces Simulation of the "MoleculeX" model under different standard conditions: (A) Standard for the further analysis of the model, (B) standards of the "Apoplast" model and (C) standards of the "Simple" model. Unchanged parameters are kept as they are in the "MoleculeX" standard.}}{3}{figure.2}}
\newlabel{fig:molx_standard}{{2}{3}{Simulation of the "MoleculeX" model under different standard conditions: (A) Standard for the further analysis of the model, (B) standards of the "Apoplast" model and (C) standards of the "Simple" model. Unchanged parameters are kept as they are in the "MoleculeX" standard}{figure.2}{}}
\@writefile{lot}{\contentsline {table}{\numberline {1}{\ignorespaces Values and definitions of the parameters used as the standard for analysis of the "MoleculeX" model.}}{4}{table.1}}
\newlabel{tab:molx_standard}{{1}{4}{Values and definitions of the parameters used as the standard for analysis of the "MoleculeX" model}{table.1}{}}
\@writefile{lof}{\contentsline {figure}{\numberline {3}{\ignorespaces Simulations under moleculeX standard conditions with increasing number of cells and apoplasts.}}{5}{figure.3}}
\newlabel{fig:molx_cn}{{3}{5}{Simulations under moleculeX standard conditions with increasing number of cells and apoplasts}{figure.3}{}}
\@writefile{lof}{\contentsline {figure}{\numberline {4}{\ignorespaces Simulations under moleculeX standard conditions with increase of the auxin base concentration $A$ from 1 to 50.}}{6}{figure.4}}
\newlabel{fig:molx_A}{{4}{6}{Simulations under moleculeX standard conditions with increase of the auxin base concentration $A$ from 1 to 50}{figure.4}{}}
\@writefile{lof}{\contentsline {figure}{\numberline {5}{\ignorespaces Simulations under moleculeX standard conditions with change value for the auxin sythesis coefficient $G_{a}$. The appearance of the pattern differs significantly, if $G_{a}$ is lower (A) or higher (B) than a value of 0.015.}}{7}{figure.5}}
\newlabel{fig:molx_Ga}{{5}{7}{Simulations under moleculeX standard conditions with change value for the auxin sythesis coefficient $G_{a}$. The appearance of the pattern differs significantly, if $G_{a}$ is lower (A) or higher (B) than a value of 0.015}{figure.5}{}}
\@writefile{lof}{\contentsline {figure}{\numberline {6}{\ignorespaces Simulations under moleculeX standard conditions with the increase of the PIN synthesis coefficient $G_{p}$. The calculation of the steady state depends on a tolerance as indicator for the comparison of two integrational states. (A) With a tolerance of $1e-3$,the smallest value for $G_{p}$ for which a steady state could be calculated is $0.06$. (B) Increasing the tolerance to 1e-4, the calculation of the steady state become possible for $G_{p}=0.01$ }}{7}{figure.6}}
\newlabel{fig:molx_Gp}{{6}{7}{Simulations under moleculeX standard conditions with the increase of the PIN synthesis coefficient $G_{p}$. The calculation of the steady state depends on a tolerance as indicator for the comparison of two integrational states. (A) With a tolerance of $1e-3$,the smallest value for $G_{p}$ for which a steady state could be calculated is $0.06$. (B) Increasing the tolerance to 1e-4, the calculation of the steady state become possible for $G_{p}=0.01$}{figure.6}{}}
\@writefile{lof}{\contentsline {figure}{\numberline {7}{\ignorespaces Simulations under moleculeX standard conditions with a change of regulation factors $r$ (A) and $mx$ (B) for moleculeX synthesis and PIN regulation, respectively.}}{9}{figure.7}}
\newlabel{fig:molx_rmx}{{7}{9}{Simulations under moleculeX standard conditions with a change of regulation factors $r$ (A) and $mx$ (B) for moleculeX synthesis and PIN regulation, respectively}{figure.7}{}}
\bibstyle{plain}
\bibdata{master-ref2}
\bibcite{Fujita2018}{1}
\bibcite{shinohara2013}{2}
\bibcite{whitford2012}{3}
