\BOOKMARK [1][-]{section.1}{Models}{}% 1
\BOOKMARK [2][-]{subsection.1.1}{One-dimensional auxin pattern model}{section.1}% 2
\BOOKMARK [3][-]{subsubsection.1.1.1}{Mathematical equations}{subsection.1.1}% 3
\BOOKMARK [2][-]{subsection.1.2}{Analysis}{section.1}% 4
