\BOOKMARK [2][-]{subsection.2.1}{Apoplast model}{}% 1
\BOOKMARK [3][-]{subsubsection.2.1.1}{Mathematical equations}{subsection.2.1}% 2
\BOOKMARK [3][-]{subsubsection.2.1.2}{Analysis}{subsection.2.1}% 3
