\relax 
\providecommand\hyper@newdestlabel[2]{}
\AC@reset@newl@bel
\providecommand\HyperFirstAtBeginDocument{\AtBeginDocument}
\HyperFirstAtBeginDocument{\ifx\hyper@anchor\@undefined
\global\let\oldcontentsline\contentsline
\gdef\contentsline#1#2#3#4{\oldcontentsline{#1}{#2}{#3}}
\global\let\oldnewlabel\newlabel
\gdef\newlabel#1#2{\newlabelxx{#1}#2}
\gdef\newlabelxx#1#2#3#4#5#6{\oldnewlabel{#1}{{#2}{#3}}}
\AtEndDocument{\ifx\hyper@anchor\@undefined
\let\contentsline\oldcontentsline
\let\newlabel\oldnewlabel
\fi}
\fi}
\global\let\hyper@last\relax 
\gdef\HyperFirstAtBeginDocument#1{#1}
\providecommand\HyField@AuxAddToFields[1]{}
\providecommand\HyField@AuxAddToCoFields[2]{}
\citation{swinton2016}
\citation{fujita2018}
\citation{bayer2008}
\citation{stoma2008}
\citation{traas2002}
\@writefile{lot}{\contentsline {table}{\numberline {1}{\ignorespaces Table with used abbreviations}}{2}{table.1}}
\newlabel{abbrv}{{1}{2}{Table with used abbreviations}{table.1}{}}
\@writefile{toc}{\contentsline {section}{\numberline {1}Introduction}{2}{section.1}}
\newlabel{sec:intro}{{1}{2}{Introduction}{section.1}{}}
\citation{hertel1963}
\citation{Michniewicz2007}
\citation{sachs1981}
\citation{stoma2008}
\citation{merks2007*}
\citation{vieten2005}
\citation{stoma2008}
\citation{sachs1981}
\citation{fujita2018}
\citation{traas2002}
\@writefile{lof}{\contentsline {figure}{\numberline {1}{\ignorespaces Border conditions for one-dimensional model defining the concentration values of auxin and pin in the first cell that would border the terminal cells of the system; (\textbf  {A} "cutoff") off-limit values are always zero; (\textbf  {B} "PBC") off-limit cells copy values of terminal cell at opposite end of the system; (\textbf  {C} "zero-flux") off-limit cells mirror values of terminal cells to set the netflux at the ends of the system to zero}}{5}{figure.1}}
\newlabel{fig:F_bc}{{1}{5}{Border conditions for one-dimensional model defining the concentration values of auxin and pin in the first cell that would border the terminal cells of the system; (\textbf {A} "cutoff") off-limit values are always zero; (\textbf {B} "PBC") off-limit cells copy values of terminal cell at opposite end of the system; (\textbf {C} "zero-flux") off-limit cells mirror values of terminal cells to set the netflux at the ends of the system to zero}{figure.1}{}}
\@writefile{toc}{\contentsline {subsection}{\numberline {1.1}Model structure}{5}{subsection.1.1}}
\newlabel{sec:MS}{{1.1}{5}{Model structure}{subsection.1.1}{}}
\@writefile{toc}{\contentsline {subsection}{\numberline {1.2}Test values}{6}{subsection.1.2}}
\newlabel{sec:TV}{{1.2}{6}{Test values}{subsection.1.2}{}}
\citation{Fujita2018}
\@writefile{lof}{\contentsline {figure}{\numberline {2}{\ignorespaces Visualizations of the calculated test values for simulations of the "Simple" model.}}{7}{figure.2}}
\newlabel{fig:F_tv}{{2}{7}{Visualizations of the calculated test values for simulations of the "Simple" model}{figure.2}{}}
\@writefile{toc}{\contentsline {section}{\numberline {2}Models}{7}{section.2}}
\@writefile{toc}{\contentsline {subsection}{\numberline {2.1}One-dimensional auxin pattern model}{7}{subsection.2.1}}
\newlabel{sec:1Dmodel}{{2.1}{7}{One-dimensional auxin pattern model}{subsection.2.1}{}}
\@writefile{lof}{\contentsline {figure}{\numberline {3}{\ignorespaces Schematic of the one-dimensional "Simple" model. Adjacent cells are directly connected and each cell in the sequence has its own internal auxin concentration ($A_{i}$) and a PIN concentration ($PIN_{i}$), that is asymmetrically distributed between both sides of the plasma membrane plasmamembranes. Auxin is produced and degraded in the each cell and can pass the membranes either by simple diffusion (blue arrows) or unidirectional via active transport by the PINs inside of the membrane. PINs are constantly cycling between membranes and endosomal compartments of the cell for synthesis and degradation. The regulation of the PIN re-distribution depends on the highest auxin concentration of the neighboring cells.}}{8}{figure.3}}
\citation{Fujita2018}
\@writefile{lof}{\contentsline {figure}{\numberline {4}{\ignorespaces One-dimensional auxin pattern model at steady state; auxin concentration of the cells in the model are described by the (blue) bars. Initial distribution of auxin with a random noise of 1\% marked by the (red) dashed line. The total amount of auxin in one period (peak-to-peak) is nearly equal to the initial amount.}}{9}{figure.4}}
\@writefile{toc}{\contentsline {subsubsection}{\numberline {2.1.1}Mathematical equations}{9}{subsubsection.2.1.1}}
\newlabel{sec:1Dequation}{{2.1.1}{9}{Mathematical equations}{subsubsection.2.1.1}{}}
\newlabel{eq:1}{{1}{9}{Mathematical equations}{equation.2.1}{}}
\citation{adamowski2015}
\newlabel{eq:1a}{{1a}{10}{Mathematical equations}{equation.2.1a}{}}
\newlabel{eq:1b}{{1b}{10}{Mathematical equations}{equation.2.1b}{}}
\newlabel{eq:1c}{{1c}{10}{Mathematical equations}{equation.2.1c}{}}
\newlabel{eq:2}{{2}{10}{Mathematical equations}{equation.2.2}{}}
\newlabel{phi}{{2.1.1}{10}{Mathematical equations}{equation.2.2}{}}
\newlabel{phi}{{2.1.1}{10}{Mathematical equations}{equation.2.2}{}}
\citation{Fujita2018}
\@writefile{lot}{\contentsline {table}{\numberline {2}{\ignorespaces Values and definitions of the parameter used as the standard for analysis of the "Simple" model.}}{11}{table.2}}
\newlabel{tab:1DSimple}{{2}{11}{Values and definitions of the parameter used as the standard for analysis of the "Simple" model}{table.2}{}}
\@writefile{toc}{\contentsline {subsection}{\numberline {2.2}Analysis}{11}{subsection.2.2}}
\newlabel{sec:1Dmbt}{{2.2}{11}{Analysis}{subsection.2.2}{}}
\@writefile{lof}{\contentsline {figure}{\numberline {5}{\ignorespaces Test results of the "Simple" model under standard conditions with varying size from 5 to 100 cells. Value of the tested variable is plotted against the test values. The left axis is for the steady state and the other for the remaining test values with their unit depicted in the legend.}}{12}{figure.5}}
\newlabel{fig:1dsimple_cn}{{5}{12}{Test results of the "Simple" model under standard conditions with varying size from 5 to 100 cells. Value of the tested variable is plotted against the test values. The left axis is for the steady state and the other for the remaining test values with their unit depicted in the legend}{figure.5}{}}
\@writefile{lof}{\contentsline {figure}{\numberline {6}{\ignorespaces Simulations under standard conditions with variation of the initial auxin value. Steady state pattern of auxin with 20 (\textbf  {A}) and 25 (\textbf  {B}) $\mu mol/L$. (\textbf  {C}) Test results for increasing initial auxin concentration and the base value concentration $A$ set to a fifth of it. }}{13}{figure.6}}
\newlabel{fig:1dsimple_iva_aux}{{6}{13}{Simulations under standard conditions with variation of the initial auxin value. Steady state pattern of auxin with 20 (\textbf {A}) and 25 (\textbf {B}) $\mu mol/L$. (\textbf {C}) Test results for increasing initial auxin concentration and the base value concentration $A$ set to a fifth of it}{figure.6}{}}
\@writefile{lof}{\contentsline {figure}{\numberline {7}{\ignorespaces Simulation with standard conditions and no noise.}}{13}{figure.7}}
\newlabel{fig:1dsimple_noi}{{7}{13}{Simulation with standard conditions and no noise}{figure.7}{}}
\@writefile{lof}{\contentsline {figure}{\numberline {8}{\ignorespaces Simulation with standard conditions and the three possible structure modes for the system: (\textbf  {A}) an open system, where auxin can leave to the environment, (\textbf  {B}) a closed, continuous system and (\textbf  {C}) a semi-closed system.}}{14}{figure.8}}
\newlabel{fig:1dsimple_bc}{{8}{14}{Simulation with standard conditions and the three possible structure modes for the system: (\textbf {A}) an open system, where auxin can leave to the environment, (\textbf {B}) a closed, continuous system and (\textbf {C}) a semi-closed system}{figure.8}{}}
\@writefile{lof}{\contentsline {figure}{\numberline {9}{\ignorespaces Simulation under standard condition with a sink (\textbf  {A}) or source (\textbf  {B}) in one cell. The location of the depicted cell and the auxin concentration constantly added/removed is described in the title of the plot.}}{15}{figure.9}}
\newlabel{fig:1dsimple_ss}{{9}{15}{Simulation under standard condition with a sink (\textbf {A}) or source (\textbf {B}) in one cell. The location of the depicted cell and the auxin concentration constantly added/removed is described in the title of the plot}{figure.9}{}}
\@writefile{lof}{\contentsline {figure}{\numberline {10}{\ignorespaces Influence of a auxin source or sink on the model behavior. Plots show the change of minimal auxin concentration (\textbf  {A}) and average peak height (\textbf  {B}) for relative change of the auxin concentration at position 25 (before the integrational step; see \hyperref  {Gitlab}{https://gitlab.com/Fe_Ris/master-files/}).}}{15}{figure.10}}
\newlabel{fig:1dsimple_ss2}{{10}{15}{Influence of a auxin source or sink on the model behavior. Plots show the change of minimal auxin concentration (\textbf {A}) and average peak height (\textbf {B}) for relative change of the auxin concentration at position 25 (before the integrational step; see \hyperref {Gitlab}{https://gitlab.com/Fe_Ris/master-files/})}{figure.10}{}}
\newlabel{1dsimole_A}{{2.2}{16}{Analysis}{figure.10}{}}
\@writefile{lof}{\contentsline {figure}{\numberline {11}{\ignorespaces Simulations made under standard conditions with modification of the parameter $G_{a}$ for the auxin synthesis rate. Parameters values range from 0.1 to 2.5.}}{16}{figure.11}}
\newlabel{fig:1dsimple_Ga}{{11}{16}{Simulations made under standard conditions with modification of the parameter $G_{a}$ for the auxin synthesis rate. Parameters values range from 0.1 to 2.5}{figure.11}{}}
\@writefile{lof}{\contentsline {figure}{\numberline {12}{\ignorespaces Simulations made under standard conditions with modification of the parameter $D_{a}$ for the diffusion of auxin between cells. Parameters values range from 0 to 118}}{17}{figure.12}}
\newlabel{fig:1dsimple_Da}{{12}{17}{Simulations made under standard conditions with modification of the parameter $D_{a}$ for the diffusion of auxin between cells. Parameters values range from 0 to 118}{figure.12}{}}
\@writefile{lof}{\contentsline {figure}{\numberline {13}{\ignorespaces Simulations made under standard conditions with modification of the parameter $E_{p}$ for the efficiency of PIN proteins to transport PIN. Parameters values range from 0 to 1. While the peak height (red) is nearly zero, fluctuation of the other test values can be ignored.}}{18}{figure.13}}
\newlabel{fig:1dsimple_Da}{{13}{18}{Simulations made under standard conditions with modification of the parameter $E_{p}$ for the efficiency of PIN proteins to transport PIN. Parameters values range from 0 to 1. While the peak height (red) is nearly zero, fluctuation of the other test values can be ignored}{figure.13}{}}
\@writefile{lof}{\contentsline {figure}{\numberline {14}{\ignorespaces Simulations made under standard conditions with modification of the parameter $G_{p}$ for the rate of PIN synthesis. Parameters values range from 0.1 to 10}}{18}{figure.14}}
\newlabel{fig:1dsimple_Gp}{{14}{18}{Simulations made under standard conditions with modification of the parameter $G_{p}$ for the rate of PIN synthesis. Parameters values range from 0.1 to 10}{figure.14}{}}
\citation{citi2019}
\@writefile{lof}{\contentsline {figure}{\numberline {15}{\ignorespaces Simulations made under standard conditions with modification of the parameter $m$ as a regulation factor for the PIN distribution in a cell. Parameters values range from 0.5 to 5}}{19}{figure.15}}
\newlabel{fig:1dsimple_m}{{15}{19}{Simulations made under standard conditions with modification of the parameter $m$ as a regulation factor for the PIN distribution in a cell. Parameters values range from 0.5 to 5}{figure.15}{}}
\@writefile{toc}{\contentsline {subsection}{\numberline {2.3}Apoplast model}{19}{subsection.2.3}}
\newlabel{sec:apomodel}{{2.3}{19}{Apoplast model}{subsection.2.3}{}}
\@writefile{lof}{\contentsline {figure}{\numberline {16}{\ignorespaces Schematic of the one-dimensional "Apoplast" model, which is based on the "Simple" model. Apoplast 'cells' are integrated between neighbored cells with an individual auxin concentration ($A_{i,i+k}$). Apoplast doesn't contain PINs and are only able to derade auxin. The PIN distribution of a cell now is dependent on the relative auxin concentration of the neighboring apoplasts instead of the cells. Auxin can still be transported via diffusion or PINs and additionally, by AUX carriers from apoplasts back into cells. Other than PINs, the concentration of them is assumed to be fixed for each membrane.}}{20}{figure.16}}
\newlabel{fig:Apo_transport}{{16}{20}{Schematic of the one-dimensional "Apoplast" model, which is based on the "Simple" model. Apoplast 'cells' are integrated between neighbored cells with an individual auxin concentration ($A_{i,i+k}$). Apoplast doesn't contain PINs and are only able to derade auxin. The PIN distribution of a cell now is dependent on the relative auxin concentration of the neighboring apoplasts instead of the cells. Auxin can still be transported via diffusion or PINs and additionally, by AUX carriers from apoplasts back into cells. Other than PINs, the concentration of them is assumed to be fixed for each membrane}{figure.16}{}}
\@writefile{toc}{\contentsline {subsubsection}{\numberline {2.3.1}Mathematical equations}{20}{subsubsection.2.3.1}}
\newlabel{sec:apoequation}{{2.3.1}{20}{Mathematical equations}{subsubsection.2.3.1}{}}
\newlabel{eq:3}{{3}{20}{Mathematical equations}{equation.2.3}{}}
\newlabel{eq:3a}{{3a}{21}{Mathematical equations}{equation.2.3a}{}}
\newlabel{eq:4}{{4}{21}{Mathematical equations}{equation.2.4}{}}
\newlabel{eq:5}{{5}{21}{Mathematical equations}{equation.2.5}{}}
\newlabel{eq:5a}{{5a}{21}{Mathematical equations}{equation.2.5a}{}}
\newlabel{eq:5b}{{5b}{21}{Mathematical equations}{equation.2.5b}{}}
\newlabel{eq:5c}{{5c}{21}{Mathematical equations}{equation.2.5c}{}}
\@writefile{toc}{\contentsline {subsubsection}{\numberline {2.3.2}Analysis}{21}{subsubsection.2.3.2}}
\newlabel{sec:APOmbt}{{2.3.2}{21}{Analysis}{subsubsection.2.3.2}{}}
\@writefile{lof}{\contentsline {figure}{\numberline {17}{\ignorespaces Simulations of the "Apoplast" model with the previous standard conditions for the inherited parameters of the "Simple" model (\textbf  {A}) and a new standrd parameter set (\textbf  {B}). Auxin concentrations shown for each cell (blue) or the extracellular space between two cells (orange).}}{22}{figure.17}}
\newlabel{fig:apo_standard}{{17}{22}{Simulations of the "Apoplast" model with the previous standard conditions for the inherited parameters of the "Simple" model (\textbf {A}) and a new standrd parameter set (\textbf {B}). Auxin concentrations shown for each cell (blue) or the extracellular space between two cells (orange)}{figure.17}{}}
\@writefile{lot}{\contentsline {table}{\numberline {3}{\ignorespaces Values and definitions of the parameter used as the standard for analysis of the "Apoplast" model.}}{23}{table.3}}
\newlabel{tab:Apo_standard}{{3}{23}{Values and definitions of the parameter used as the standard for analysis of the "Apoplast" model}{table.3}{}}
\@writefile{lof}{\contentsline {figure}{\numberline {18}{\ignorespaces Simulations under apoplast standard conditions with size varying over a range from 5 to 100 cells. (\textbf  {A} and \textbf  {B}) Testing results were taken at steady state for each cell number $N$; (\textbf  {C}) Simulation with system of 95 cells. Even without a global pattern, similar structures (red and green frames) can be found. }}{24}{figure.18}}
\newlabel{fig:apo_cn}{{18}{24}{Simulations under apoplast standard conditions with size varying over a range from 5 to 100 cells. (\textbf {A} and \textbf {B}) Testing results were taken at steady state for each cell number $N$; (\textbf {C}) Simulation with system of 95 cells. Even without a global pattern, similar structures (red and green frames) can be found}{figure.18}{}}
\@writefile{lof}{\contentsline {figure}{\numberline {19}{\ignorespaces Simulations under apoplast standard conditions with initial values for auxin and PIN in a parameter range from 1 to 96. Test results for (\textbf  {A}) initial auxin and (\textbf  {B}) PIN. Results of the newly added tests are not shown, since they don't show any helpful information.}}{25}{figure.19}}
\newlabel{fig:apo_init}{{19}{25}{Simulations under apoplast standard conditions with initial values for auxin and PIN in a parameter range from 1 to 96. Test results for (\textbf {A}) initial auxin and (\textbf {B}) PIN. Results of the newly added tests are not shown, since they don't show any helpful information}{figure.19}{}}
\@writefile{lof}{\contentsline {figure}{\numberline {20}{\ignorespaces Simulations under apoplast standard conditions with 20\% and 50\% initial noise.}}{26}{figure.20}}
\newlabel{fig:apo_noi}{{20}{26}{Simulations under apoplast standard conditions with 20\% and 50\% initial noise}{figure.20}{}}
\@writefile{lof}{\contentsline {figure}{\numberline {21}{\ignorespaces Simulations under apoplast standard conditions with (\textbf  {A}) "cutoff", (\textbf  {B}) "PBC" or (\textbf  {C}) "zero-flux" boundary condition.}}{27}{figure.21}}
\newlabel{fig:apo_bc}{{21}{27}{Simulations under apoplast standard conditions with (\textbf {A}) "cutoff", (\textbf {B}) "PBC" or (\textbf {C}) "zero-flux" boundary condition}{figure.21}{}}
\@writefile{lof}{\contentsline {figure}{\numberline {22}{\ignorespaces Relative difference in the distribution of auxin to a standard simulation. Source or sink is at position 25 (red square) in an apoplast (\textbf  {A} and \textbf  {B}) or a cell (\textbf  {C} and \textbf  {D}).}}{28}{figure.22}}
\newlabel{fig:apo_ss}{{22}{28}{Relative difference in the distribution of auxin to a standard simulation. Source or sink is at position 25 (red square) in an apoplast (\textbf {A} and \textbf {B}) or a cell (\textbf {C} and \textbf {D})}{figure.22}{}}
\@writefile{lof}{\contentsline {figure}{\numberline {23}{\ignorespaces Simulations under apoplast standard conditions with the increase of the auxin base level from 1 to 50 $\mu g/L$.}}{28}{figure.23}}
\newlabel{fig:apo_A}{{23}{28}{Simulations under apoplast standard conditions with the increase of the auxin base level from 1 to 50 $\mu g/L$}{figure.23}{}}
\@writefile{lof}{\contentsline {figure}{\numberline {24}{\ignorespaces Simulations under apoplast standard conditions with increase of the auxin synthesis coefficient $G_{a}$ from 0.05 to 10. $G_{a}$ does not change the rate, but how strong it is affected by the difference of the base level $A$ and the actual concentration.}}{29}{figure.24}}
\newlabel{fig:apo_Ga}{{24}{29}{Simulations under apoplast standard conditions with increase of the auxin synthesis coefficient $G_{a}$ from 0.05 to 10. $G_{a}$ does not change the rate, but how strong it is affected by the difference of the base level $A$ and the actual concentration}{figure.24}{}}
\@writefile{lof}{\contentsline {figure}{\numberline {25}{\ignorespaces Simulations under apoplast standard conditions with the increase of the diffusion coefficient $D_{a}$ from 0 to 120. Maximum of "avg. peak height" if $D_{a}$ between 10 and 20.}}{29}{figure.25}}
\newlabel{fig:apo_Da}{{25}{29}{Simulations under apoplast standard conditions with the increase of the diffusion coefficient $D_{a}$ from 0 to 120. Maximum of "avg. peak height" if $D_{a}$ between 10 and 20}{figure.25}{}}
\@writefile{lof}{\contentsline {figure}{\numberline {26}{\ignorespaces Simulations under apoplast standard conditions with variation of the PIN efficiency $E_{p}$ from 0 to 1. (A) Simulation with an value of 0.255 for $E_{p}$. Higher ($E_{p}=0.256$) or lower ($E_{p}=0.254$) values either show increasing irregularity or no change at all, respectively. (B) Calculated test values of steady states with different $E_{p}$. (C) Calculated test values of steady states with $E_{p}=0.255$ and variation of $D_{a}$. Red marks indicates values at which the results drastically change.}}{30}{figure.26}}
\newlabel{fig:apo_Ep}{{26}{30}{Simulations under apoplast standard conditions with variation of the PIN efficiency $E_{p}$ from 0 to 1. (A) Simulation with an value of 0.255 for $E_{p}$. Higher ($E_{p}=0.256$) or lower ($E_{p}=0.254$) values either show increasing irregularity or no change at all, respectively. (B) Calculated test values of steady states with different $E_{p}$. (C) Calculated test values of steady states with $E_{p}=0.255$ and variation of $D_{a}$. Red marks indicates values at which the results drastically change}{figure.26}{}}
\@writefile{lof}{\contentsline {figure}{\numberline {27}{\ignorespaces Simulations under apoplast standard conditions with the parameter $E_{p}$ against $D_{a}$. The heatmap shows the difference at steady state to the result with $E_{p}=0.255$ and $D_{a}=30.5$, that shows a regular pattern. The difference of two distributions is defined by the standard deviation of the element-wise, absolute difference in the auxin concentration. The red dot mark the smallest value for a specific $E_{p}$. Calculated linear regression revealed a change of 12 of the diffusion coefficient per increase of the PIN efficiency by $1\%$.}}{30}{figure.27}}
\newlabel{fig:apo_epda}{{27}{30}{Simulations under apoplast standard conditions with the parameter $E_{p}$ against $D_{a}$. The heatmap shows the difference at steady state to the result with $E_{p}=0.255$ and $D_{a}=30.5$, that shows a regular pattern. The difference of two distributions is defined by the standard deviation of the element-wise, absolute difference in the auxin concentration. The red dot mark the smallest value for a specific $E_{p}$. Calculated linear regression revealed a change of 12 of the diffusion coefficient per increase of the PIN efficiency by $1\%$}{figure.27}{}}
\@writefile{lof}{\contentsline {figure}{\numberline {28}{\ignorespaces Simulations under apoplast standard conditions with the increase of PIN regulation coefficient $m$, which affects the influence of neighboring auxin concentrations on the PIN distribution of a cell [\ref  {phi}].}}{31}{figure.28}}
\newlabel{fig:apo_m}{{28}{31}{Simulations under apoplast standard conditions with the increase of PIN regulation coefficient $m$, which affects the influence of neighboring auxin concentrations on the PIN distribution of a cell [\ref {phi}]}{figure.28}{}}
\citation{Fujita2018}
\citation{shinohara2013}
\citation{whitford2012}
\@writefile{toc}{\contentsline {subsection}{\numberline {2.4}MoleculeX model}{32}{subsection.2.4}}
\newlabel{sec:molxmodel}{{2.4}{32}{MoleculeX model}{subsection.2.4}{}}
\@writefile{lof}{\contentsline {figure}{\numberline {29}{\ignorespaces Schematic of the one-dimensional "MoleculeX" model, which is based on the "Apoplast model. Beside auxin, a diffusible molecule ($MX_{i}$) is produced, dependent on the auxin concentration, in a cell and can freely diffuse between cells and apoplasts. Together with the auxin in the apoplasts, it is a factor for the regulation of the PIN re-distribution.}}{32}{figure.29}}
\@writefile{toc}{\contentsline {subsubsection}{\numberline {2.4.1}Mathematical equations}{32}{subsubsection.2.4.1}}
\newlabel{sec:molxequation}{{2.4.1}{32}{Mathematical equations}{subsubsection.2.4.1}{}}
\newlabel{eq:molx_xi}{{6}{33}{Mathematical equations}{equation.2.6}{}}
\newlabel{eq:molx_theta}{{6a}{33}{Mathematical equations}{equation.2.6a}{}}
\newlabel{eq:molx_xij}{{7}{33}{Mathematical equations}{equation.2.7}{}}
\@writefile{toc}{\contentsline {subsection}{\numberline {2.5}Analysis}{33}{subsection.2.5}}
\newlabel{sec:molxanalysis}{{2.5}{33}{Analysis}{subsection.2.5}{}}
\@writefile{lof}{\contentsline {figure}{\numberline {30}{\ignorespaces Simulation of the "MoleculeX" model under different standard conditions: (A) Standard for the further analysis of the model, (B) standards of the "Apoplast" model and (C) standards of the "Simple" model. Unchanged parameters are kept as they are in the "MoleculeX" standard.}}{34}{figure.30}}
\newlabel{fig:molx_standard}{{30}{34}{Simulation of the "MoleculeX" model under different standard conditions: (A) Standard for the further analysis of the model, (B) standards of the "Apoplast" model and (C) standards of the "Simple" model. Unchanged parameters are kept as they are in the "MoleculeX" standard}{figure.30}{}}
\@writefile{lot}{\contentsline {table}{\numberline {4}{\ignorespaces Values and definitions of the parameters used as the standard for analysis of the "MoleculeX" model.}}{35}{table.4}}
\newlabel{tab:molx_standard}{{4}{35}{Values and definitions of the parameters used as the standard for analysis of the "MoleculeX" model}{table.4}{}}
\@writefile{lof}{\contentsline {figure}{\numberline {31}{\ignorespaces Simulations under moleculeX standard conditions with increasing number of cells and apoplasts.}}{36}{figure.31}}
\newlabel{fig:molx_cn}{{31}{36}{Simulations under moleculeX standard conditions with increasing number of cells and apoplasts}{figure.31}{}}
\@writefile{lof}{\contentsline {figure}{\numberline {32}{\ignorespaces Simulations under moleculeX standard conditions with increase of the auxin base concentration $A$ from 1 to 50.}}{37}{figure.32}}
\newlabel{fig:molx_A}{{32}{37}{Simulations under moleculeX standard conditions with increase of the auxin base concentration $A$ from 1 to 50}{figure.32}{}}
\@writefile{lof}{\contentsline {figure}{\numberline {33}{\ignorespaces Simulations under moleculeX standard conditions with change value for the auxin sythesis coefficient $G_{a}$. The appearance of the pattern differs significantly, if $G_{a}$ is lower (A) or higher (B) than a value of 0.015.}}{38}{figure.33}}
\newlabel{fig:molx_Ga}{{33}{38}{Simulations under moleculeX standard conditions with change value for the auxin sythesis coefficient $G_{a}$. The appearance of the pattern differs significantly, if $G_{a}$ is lower (A) or higher (B) than a value of 0.015}{figure.33}{}}
\@writefile{lof}{\contentsline {figure}{\numberline {34}{\ignorespaces Simulations under moleculeX standard conditions with the increase of the PIN synthesis coefficient $G_{p}$. The calculation of the steady state depends on a tolerance as indicator for the comparison of two integrational states. (A) With a tolerance of $1e-3$,the smallest value for $G_{p}$ for which a steady state could be calculated is $0.06$. (B) Increasing the tolerance to 1e-4, the calculation of the steady state become possible for $G_{p}=0.01$ }}{39}{figure.34}}
\newlabel{fig:molx_Gp}{{34}{39}{Simulations under moleculeX standard conditions with the increase of the PIN synthesis coefficient $G_{p}$. The calculation of the steady state depends on a tolerance as indicator for the comparison of two integrational states. (A) With a tolerance of $1e-3$,the smallest value for $G_{p}$ for which a steady state could be calculated is $0.06$. (B) Increasing the tolerance to 1e-4, the calculation of the steady state become possible for $G_{p}=0.01$}{figure.34}{}}
\@writefile{lof}{\contentsline {figure}{\numberline {35}{\ignorespaces Simulations under moleculeX standard conditions with a change of regulation factors $r$ (A) and $mx$ (B) for moleculeX synthesis and PIN regulation, respectively.}}{40}{figure.35}}
\newlabel{fig:molx_rmx}{{35}{40}{Simulations under moleculeX standard conditions with a change of regulation factors $r$ (A) and $mx$ (B) for moleculeX synthesis and PIN regulation, respectively}{figure.35}{}}
\@writefile{toc}{\contentsline {subsection}{\numberline {2.6}Simple 2D model}{41}{subsection.2.6}}
\newlabel{sec:2d}{{2.6}{41}{Simple 2D model}{subsection.2.6}{}}
\newlabel{eq:2d_1}{{8}{41}{Simple 2D model}{equation.2.8}{}}
\newlabel{eq:2d_1a}{{8a}{41}{Simple 2D model}{equation.2.8a}{}}
\@writefile{lof}{\contentsline {figure}{\numberline {36}{\ignorespaces Two-dimensional model based on the "Simple" model. (A,B) The model is build on a 50x50 rectangular grid with the height (z-axis) as the absolute auxin concentration at each position. Used values for the parameters are [auxin=1, pin=10, noise=0.1, PBC=1, A=4, Ga=0.2, Da=1.31, P=40, Gp=0.25, Ep=0.2]. (A) Perspective and (B) Top view of the final simulation. (C) Alternative representation (extract, inverted) of the model. Each cell is divided into a central (cytosol) and four marginal spaces (intermembrane PIN), where the opacity of a space is defined by the respective concentration of auxin (green) or PIN (red). (D) Agent-based model for the two-dimensional case of the patterning process. Model size is 21x21 with the auxin concentration presented by the normalized grayscale color of each cell.}}{42}{figure.36}}
\newlabel{fig:2d_view}{{36}{42}{Two-dimensional model based on the "Simple" model. (A,B) The model is build on a 50x50 rectangular grid with the height (z-axis) as the absolute auxin concentration at each position. Used values for the parameters are [auxin=1, pin=10, noise=0.1, PBC=1, A=4, Ga=0.2, Da=1.31, P=40, Gp=0.25, Ep=0.2]. (A) Perspective and (B) Top view of the final simulation. (C) Alternative representation (extract, inverted) of the model. Each cell is divided into a central (cytosol) and four marginal spaces (intermembrane PIN), where the opacity of a space is defined by the respective concentration of auxin (green) or PIN (red). (D) Agent-based model for the two-dimensional case of the patterning process. Model size is 21x21 with the auxin concentration presented by the normalized grayscale color of each cell}{figure.36}{}}
\bibstyle{plain}
\bibdata{master-ref2}
\bibcite{vieten2005}{1}
\bibcite{adamowski2015}{2}
\bibcite{citi2019}{3}
\bibcite{bayer2008}{4}
\bibcite{fujita2018}{5}
\bibcite{hertel1963}{6}
\bibcite{swinton2016}{7}
\bibcite{Michniewicz2007}{8}
\bibcite{shinohara2013}{9}
\bibcite{merks2007*}{10}
\bibcite{whitford2012}{11}
\@writefile{toc}{\contentsline {subsection}{\numberline {2.7}Other models}{44}{subsection.2.7}}
\newlabel{sec:other}{{2.7}{44}{Other models}{subsection.2.7}{}}
\@writefile{toc}{\contentsline {subsubsection}{\numberline {2.7.1}ABP model}{44}{subsubsection.2.7.1}}
\newlabel{sec:ABP}{{2.7.1}{44}{ABP model}{subsubsection.2.7.1}{}}
\@writefile{toc}{\contentsline {subsubsection}{\numberline {2.7.2}Leaf margin morphogenesis}{44}{subsubsection.2.7.2}}
\newlabel{sec:LMM}{{2.7.2}{44}{Leaf margin morphogenesis}{subsubsection.2.7.2}{}}
\@writefile{toc}{\contentsline {subsection}{\numberline {2.8}Conclusions}{44}{subsection.2.8}}
\newlabel{sec:conclusion}{{2.8}{44}{Conclusions}{subsection.2.8}{}}
\@writefile{toc}{\contentsline {subsection}{\numberline {2.9}Outlook}{44}{subsection.2.9}}
\newlabel{sec:outlook}{{2.9}{44}{Outlook}{subsection.2.9}{}}
\bibcite{stoma2008}{12}
\bibcite{sachs1981}{13}
\bibcite{traas2002}{14}
