\relax 
\providecommand\hyper@newdestlabel[2]{}
\AC@reset@newl@bel
\providecommand\HyperFirstAtBeginDocument{\AtBeginDocument}
\HyperFirstAtBeginDocument{\ifx\hyper@anchor\@undefined
\global\let\oldcontentsline\contentsline
\gdef\contentsline#1#2#3#4{\oldcontentsline{#1}{#2}{#3}}
\global\let\oldnewlabel\newlabel
\gdef\newlabel#1#2{\newlabelxx{#1}#2}
\gdef\newlabelxx#1#2#3#4#5#6{\oldnewlabel{#1}{{#2}{#3}}}
\AtEndDocument{\ifx\hyper@anchor\@undefined
\let\contentsline\oldcontentsline
\let\newlabel\oldnewlabel
\fi}
\fi}
\global\let\hyper@last\relax 
\gdef\HyperFirstAtBeginDocument#1{#1}
\providecommand\HyField@AuxAddToFields[1]{}
\providecommand\HyField@AuxAddToCoFields[2]{}
\citation{Fujita2018}
\@writefile{toc}{\contentsline {section}{\numberline {1}Models}{2}{section.1}}
\@writefile{toc}{\contentsline {subsection}{\numberline {1.1}One-dimensional auxin pattern model}{2}{subsection.1.1}}
\newlabel{sec:1Dmodel}{{1.1}{2}{One-dimensional auxin pattern model}{subsection.1.1}{}}
\@writefile{lof}{\contentsline {figure}{\numberline {1}{\ignorespaces Schematic of the one-dimensional "Simple" model. Adjacent cells are directly connected and each cell in the sequence has its own internal auxin concentration ($A_{i}$) and a PIN concentration ($PIN_{i}$), that is asymmetrically distributed between both sides of the plasma membrane plasmamembranes. Auxin is produced and degraded in the each cell and can pass the membranes either by simple diffusion (blue arrows) or unidirectional via active transport by the PINs inside of the membrane. PINs are constantly cycling between membranes and endosomal compartments of the cell for synthesis and degradation. The regulation of the PIN re-distribution depends on the highest auxin concentration of the neighboring cells.}}{2}{figure.1}}
\citation{Fujita2018}
\@writefile{lof}{\contentsline {figure}{\numberline {2}{\ignorespaces One-dimensional auxin pattern model at steady state; auxin concentration of the cells in the model are described by the (blue) bars. Initial distribution of auxin with a random noise of 1\% marked by the (red) dashed line. The total amount of auxin in one period (peak-to-peak) is nearly equal to the initial amount.}}{3}{figure.2}}
\@writefile{toc}{\contentsline {subsubsection}{\numberline {1.1.1}Mathematical equations}{4}{subsubsection.1.1.1}}
\newlabel{sec:1Dequation}{{1.1.1}{4}{Mathematical equations}{subsubsection.1.1.1}{}}
\newlabel{eq:1}{{1}{4}{Mathematical equations}{equation.1.1}{}}
\newlabel{eq:1a}{{1a}{4}{Mathematical equations}{equation.1.1a}{}}
\newlabel{eq:1b}{{1b}{4}{Mathematical equations}{equation.1.1b}{}}
\newlabel{eq:1c}{{1c}{4}{Mathematical equations}{equation.1.1c}{}}
\citation{adamowski2015}
\citation{Fujita2018}
\newlabel{eq:2}{{2}{5}{Mathematical equations}{equation.1.2}{}}
\newlabel{phi}{{1.1.1}{5}{Mathematical equations}{equation.1.2}{}}
\newlabel{phi}{{1.1.1}{5}{Mathematical equations}{equation.1.2}{}}
\@writefile{toc}{\contentsline {subsection}{\numberline {1.2}Analysis}{5}{subsection.1.2}}
\newlabel{sec:1Dmbt}{{1.2}{5}{Analysis}{subsection.1.2}{}}
\@writefile{lot}{\contentsline {table}{\numberline {1}{\ignorespaces Values and definitions of the parameter used as the standard for analysis of the "Simple" model.}}{6}{table.1}}
\newlabel{tab:1DSimple}{{1}{6}{Values and definitions of the parameter used as the standard for analysis of the "Simple" model}{table.1}{}}
\@writefile{lof}{\contentsline {figure}{\numberline {3}{\ignorespaces Test results of the "Simple" model under standard conditions with varying size from 5 to 100 cells. Value of the tested variable is plotted against the test values. The left axis is for the steady state and the other for the remaining test values with their unit depicted in the legend.}}{6}{figure.3}}
\newlabel{fig:1dsimple_cn}{{3}{6}{Test results of the "Simple" model under standard conditions with varying size from 5 to 100 cells. Value of the tested variable is plotted against the test values. The left axis is for the steady state and the other for the remaining test values with their unit depicted in the legend}{figure.3}{}}
\@writefile{lof}{\contentsline {figure}{\numberline {4}{\ignorespaces Simulations under standard conditions with variation of the initial auxin value. Steady state pattern of auxin with 20 (\textbf  {A}) and 25 (\textbf  {B}) $\mu mol/L$. (\textbf  {C}) Test results for increasing initial auxin concentration and the base value concentration $A$ set to a fifth of it. }}{7}{figure.4}}
\newlabel{fig:1dsimple_iva_aux}{{4}{7}{Simulations under standard conditions with variation of the initial auxin value. Steady state pattern of auxin with 20 (\textbf {A}) and 25 (\textbf {B}) $\mu mol/L$. (\textbf {C}) Test results for increasing initial auxin concentration and the base value concentration $A$ set to a fifth of it}{figure.4}{}}
\@writefile{lof}{\contentsline {figure}{\numberline {5}{\ignorespaces Simulation with standard conditions and no noise.}}{7}{figure.5}}
\newlabel{fig:1dsimple_noi}{{5}{7}{Simulation with standard conditions and no noise}{figure.5}{}}
\@writefile{lof}{\contentsline {figure}{\numberline {6}{\ignorespaces Simulation with standard conditions and the three possible structure modes for the system: (\textbf  {A}) an open system, where auxin can leave to the environment, (\textbf  {B}) a closed, continuous system and (\textbf  {C}) a semi-closed system.}}{8}{figure.6}}
\newlabel{fig:1dsimple_bc}{{6}{8}{Simulation with standard conditions and the three possible structure modes for the system: (\textbf {A}) an open system, where auxin can leave to the environment, (\textbf {B}) a closed, continuous system and (\textbf {C}) a semi-closed system}{figure.6}{}}
\@writefile{lof}{\contentsline {figure}{\numberline {7}{\ignorespaces Simulation under standard condition with a sink (\textbf  {A}) or source (\textbf  {B}) in one cell. The location of the depicted cell and the auxin concentration constantly added/removed is described in the title of the plot.}}{9}{figure.7}}
\newlabel{fig:1dsimple_ss}{{7}{9}{Simulation under standard condition with a sink (\textbf {A}) or source (\textbf {B}) in one cell. The location of the depicted cell and the auxin concentration constantly added/removed is described in the title of the plot}{figure.7}{}}
\@writefile{lof}{\contentsline {figure}{\numberline {8}{\ignorespaces Influence of a auxin source or sink on the model behavior. Plots show the change of minimal auxin concentration (\textbf  {A}) and average peak height (\textbf  {B}) for relative change of the auxin concentration at position 25 (before the integrational step; see \hyperref  {Gitlab}{https://gitlab.com/Fe_Ris/master-files/}).}}{10}{figure.8}}
\newlabel{fig:1dsimple_ss2}{{8}{10}{Influence of a auxin source or sink on the model behavior. Plots show the change of minimal auxin concentration (\textbf {A}) and average peak height (\textbf {B}) for relative change of the auxin concentration at position 25 (before the integrational step; see \hyperref {Gitlab}{https://gitlab.com/Fe_Ris/master-files/})}{figure.8}{}}
\newlabel{1dsimole_A}{{1.2}{10}{Analysis}{figure.8}{}}
\@writefile{lof}{\contentsline {figure}{\numberline {9}{\ignorespaces Simulations made under standard conditions with modification of the parameter $G_{a}$ for the auxin synthesis rate. Parameters values range from 0.1 to 2.5.}}{11}{figure.9}}
\newlabel{fig:1dsimple_Ga}{{9}{11}{Simulations made under standard conditions with modification of the parameter $G_{a}$ for the auxin synthesis rate. Parameters values range from 0.1 to 2.5}{figure.9}{}}
\@writefile{lof}{\contentsline {figure}{\numberline {10}{\ignorespaces Simulations made under standard conditions with modification of the parameter $D_{a}$ for the diffusion of auxin between cells. Parameters values range from 0 to 118}}{11}{figure.10}}
\newlabel{fig:1dsimple_Da}{{10}{11}{Simulations made under standard conditions with modification of the parameter $D_{a}$ for the diffusion of auxin between cells. Parameters values range from 0 to 118}{figure.10}{}}
\@writefile{lof}{\contentsline {figure}{\numberline {11}{\ignorespaces Simulations made under standard conditions with modification of the parameter $E_{p}$ for the efficiency of PIN proteins to transport PIN. Parameters values range from 0 to 1. While the peak height (red) is nearly zero, fluctuation of the other test values can be ignored.}}{12}{figure.11}}
\newlabel{fig:1dsimple_Da}{{11}{12}{Simulations made under standard conditions with modification of the parameter $E_{p}$ for the efficiency of PIN proteins to transport PIN. Parameters values range from 0 to 1. While the peak height (red) is nearly zero, fluctuation of the other test values can be ignored}{figure.11}{}}
\@writefile{lof}{\contentsline {figure}{\numberline {12}{\ignorespaces Simulations made under standard conditions with modification of the parameter $G_{p}$ for the rate of PIN synthesis. Parameters values range from 0.1 to 10}}{12}{figure.12}}
\newlabel{fig:1dsimple_Gp}{{12}{12}{Simulations made under standard conditions with modification of the parameter $G_{p}$ for the rate of PIN synthesis. Parameters values range from 0.1 to 10}{figure.12}{}}
\@writefile{lof}{\contentsline {figure}{\numberline {13}{\ignorespaces Simulations made under standard conditions with modification of the parameter $m$ as a regulation factor for the PIN distribution in a cell. Parameters values range from 0.5 to 5}}{13}{figure.13}}
\newlabel{fig:1dsimple_m}{{13}{13}{Simulations made under standard conditions with modification of the parameter $m$ as a regulation factor for the PIN distribution in a cell. Parameters values range from 0.5 to 5}{figure.13}{}}
\bibstyle{plain}
\bibdata{master-ref2}
\bibcite{vieten2005}{1}
\bibcite{adamowski2015}{2}
\bibcite{bayer2008}{3}
\bibcite{fujita2018}{4}
\bibcite{hertel1963}{5}
\bibcite{swinton2016}{6}
\bibcite{Michniewicz2007}{7}
\bibcite{merks2007*}{8}
\bibcite{stoma2008}{9}
\bibcite{sachs1981}{10}
\bibcite{traas2002}{11}
