\begin{thebibliography}{10}

\bibitem{vieten2005}
J.~Wisniewska E. Benková R. Benjamins T Beeckman Ch.~Luschnig A.~Vieten,
  S.~Vanneste and J.~Friml.
\newblock Functional redundancy of pin proteins is accompanied by
  auxindependent cross-regulation of pin expression.
\newblock {\em Development}, 132, 2005.

\bibitem{adamowski2015}
M.~Adamowski and J.~Friml.
\newblock Pin-dependent auxin transport: Action, regulation and evolution.
\newblock {\em The Plant Cell}, 27, 2015.

\bibitem{bayer2008}
T.~Mandel N. Nakayama M. Sauer P.~Prusinkiewicz E.~M.~Bayer, R. S.~Smith and
  C.~Kuhlemeier.
\newblock Integration of transport-based models for phyllotaxis and midvein
  formation.
\newblock {\em Genes Dev.}, 23, 2008.

\bibitem{fujita2018}
H.~Fujita and M.~Kawaguchi.
\newblock Spatial regularity control of phyllotaxis pattern generated by the
  mutual interaction between auxin and pin1.
\newblock {\em PLoS Comput Biol}, 14, 2018.

\bibitem{hertel1963}
R.~Hertel and A.~C. Leopold.
\newblock Versuche zur analyse des auxintransports in der koleoptile vonzea
  mays l.
\newblock {\em Planta}, 59, 1963.

\bibitem{swinton2016}
E.~Ochu J.~Swinton and The MSI Turing’s~Sunflower Consortium.
\newblock Novel fibonacci and non-fibonacci structure in the sunflower: results
  of a citizen science experiment.
\newblock {\em R. Soc. open sci.}, 3, 2016.

\bibitem{Michniewicz2007}
M.~Michniewicz, P.~Brewer, and J.~Friml.
\newblock Polar auxin transport and asymmetric auxin distribution.
\newblock {\em The Arabidopsis book / American Society of Plant Biologists}, 5,
  2007.

\bibitem{merks2007*}
D.~Inzé R.~M. H.~Merks, Y. Van de~Peer and G.~T.~S. Beemster.
\newblock Canalization without flux sensors: a traveling-wave hypothesis.
\newblock {\em Trends in Plant Science}, 12, 2007.

\bibitem{stoma2008}
J.~Chopard M. Schaede J. Traas Ch.~Godin S.~Stoma, M.~Lucas.
\newblock Flux-based transport enhancement as a plausible unifying mechanism
  for auxin transport in meristem development.
\newblock {\em PLoS Comput Biol}, 4, 2008.

\bibitem{sachs1981}
T.~Sachs.
\newblock Polarity and the induction of organized vascular tissues.
\newblock {\em Ann. Bot.}, 33, 1968.

\bibitem{traas2002}
J.~Traas and T.~Vernoux.
\newblock The shoot apical meristem: the dynamics of a stable structure.
\newblock {\em Phil. Trans. R. Soc. Lond. B}, 357, 2002.

\end{thebibliography}
