\relax 
\providecommand\hyper@newdestlabel[2]{}
\AC@reset@newl@bel
\providecommand\HyperFirstAtBeginDocument{\AtBeginDocument}
\HyperFirstAtBeginDocument{\ifx\hyper@anchor\@undefined
\global\let\oldcontentsline\contentsline
\gdef\contentsline#1#2#3#4{\oldcontentsline{#1}{#2}{#3}}
\global\let\oldnewlabel\newlabel
\gdef\newlabel#1#2{\newlabelxx{#1}#2}
\gdef\newlabelxx#1#2#3#4#5#6{\oldnewlabel{#1}{{#2}{#3}}}
\AtEndDocument{\ifx\hyper@anchor\@undefined
\let\contentsline\oldcontentsline
\let\newlabel\oldnewlabel
\fi}
\fi}
\global\let\hyper@last\relax 
\gdef\HyperFirstAtBeginDocument#1{#1}
\providecommand\HyField@AuxAddToFields[1]{}
\providecommand\HyField@AuxAddToCoFields[2]{}
\citation{swinton2016}
\citation{fujita2018}
\citation{bayer2008}
\citation{stoma2008}
\citation{traas2002}
\@writefile{lot}{\contentsline {table}{\numberline {1}{\ignorespaces Table with used abbreviations}}{1}{table.1}}
\newlabel{abbrv}{{1}{1}{Table with used abbreviations}{table.1}{}}
\@writefile{toc}{\contentsline {section}{\numberline {1}Introduction}{1}{section.1}}
\newlabel{sec:intro}{{1}{1}{Introduction}{section.1}{}}
\citation{hertel1963}
\citation{Michniewicz2007}
\citation{sachs1981}
\citation{stoma2008}
\citation{merks2007*}
\citation{vieten2005}
\citation{stoma2008}
\citation{sachs1981}
\citation{fujita2018}
\citation{traas2002}
\@writefile{lof}{\contentsline {figure}{\numberline {1}{\ignorespaces Border conditions for one-dimensional model defining the concentration values of auxin and pin in the first cell that would border the terminal cells of the system; (\textbf  {A} "cutoff") off-limit values are always zero; (\textbf  {B} "PBC") off-limit cells copy values of terminal cell at opposite end of the system; (\textbf  {C} "zero-flux") off-limit cells mirror values of terminal cells to set the netflux at the ends of the system to zero}}{4}{figure.1}}
\newlabel{fig:F_bc}{{1}{4}{Border conditions for one-dimensional model defining the concentration values of auxin and pin in the first cell that would border the terminal cells of the system; (\textbf {A} "cutoff") off-limit values are always zero; (\textbf {B} "PBC") off-limit cells copy values of terminal cell at opposite end of the system; (\textbf {C} "zero-flux") off-limit cells mirror values of terminal cells to set the netflux at the ends of the system to zero}{figure.1}{}}
\@writefile{toc}{\contentsline {subsection}{\numberline {1.1}Model structure}{4}{subsection.1.1}}
\newlabel{sec:MS}{{1.1}{4}{Model structure}{subsection.1.1}{}}
\@writefile{toc}{\contentsline {subsection}{\numberline {1.2}Test values}{5}{subsection.1.2}}
\newlabel{sec:TV}{{1.2}{5}{Test values}{subsection.1.2}{}}
\bibstyle{plain}
\bibdata{master-ref2}
\bibcite{vieten2005}{1}
\bibcite{bayer2008}{2}
\bibcite{fujita2018}{3}
\bibcite{hertel1963}{4}
\@writefile{lof}{\contentsline {figure}{\numberline {2}{\ignorespaces Visualizations of the calculated test values for simulations of the "Simple 1D model".}}{6}{figure.2}}
\newlabel{fig:F_tv}{{2}{6}{Visualizations of the calculated test values for simulations of the "Simple 1D model"}{figure.2}{}}
\bibcite{swinton2016}{5}
\bibcite{Michniewicz2007}{6}
\bibcite{merks2007*}{7}
\bibcite{stoma2008}{8}
\bibcite{sachs1981}{9}
\bibcite{traas2002}{10}
